<?xml version="1.0" encoding="utf-8"?>
<!-- Generator: Adobe Illustrator 15.1.0, SVG Export Plug-In . SVG Version: 6.00 Build 0)  -->
<!DOCTYPE svg PUBLIC "-//W3C//DTD SVG 1.1//EN" "http://www.w3.org/Graphics/SVG/1.1/DTD/svg11.dtd">
<svg version="1.1" id="Layer_1" xmlns="http://www.w3.org/2000/svg" xmlns:xlink="http://www.w3.org/1999/xlink" x="0px" y="0px"
	 width="600.28px" height="600.271px" viewBox="0 0 600.28 600.271" enable-background="new 0 0 600.28 600.271"
	 xml:space="preserve">
<g>
	<defs>
		<rect id="SVGID_1_" width="600.28" height="600.271"/>
	</defs>
	<clipPath id="SVGID_2_">
		<use xlink:href="#SVGID_1_"  overflow="visible"/>
	</clipPath>
	<path clip-path="url(#SVGID_2_)" fill="#F2A104" d="M597.661,230.066c-0.063-0.683-0.198-1.359-0.407-2.013
		c-0.136-0.585-0.326-1.156-0.566-1.707c-0.276-0.538-0.608-1.048-0.989-1.519c-0.384-0.559-0.826-1.074-1.321-1.538
		c-0.16-0.138-0.229-0.328-0.396-0.466l-95.418-74.106V71.914c0-16.439-13.327-29.766-29.766-29.766H361.274L318.221,8.721
		c-10.635-8.295-25.549-8.295-36.184,0l-43.061,33.427H131.452c-16.438,0-29.765,13.326-29.765,29.766v76.805L6.299,222.825
		c-0.169,0.139-0.238,0.328-0.397,0.466c-0.494,0.463-0.937,0.979-1.32,1.539c-0.381,0.47-0.713,0.979-0.991,1.518
		c-0.241,0.55-0.429,1.122-0.565,1.707c-0.207,0.645-0.343,1.31-0.407,1.985c0,0.208-0.119,0.387-0.119,0.595v337.371
		c0.014,6.311,2.056,12.449,5.824,17.512c0.059,0.088,0.07,0.197,0.138,0.277c0.07,0.078,0.219,0.168,0.318,0.277
		c5.574,7.334,14.243,11.658,23.455,11.7h535.779c9.25-0.03,17.955-4.374,23.535-11.749c0.08-0.098,0.2-0.129,0.269-0.229
		c0.069-0.098,0.077-0.188,0.139-0.277c3.769-5.063,5.81-11.201,5.824-17.512V230.663
		C597.78,230.455,597.67,230.274,597.661,230.066 M294.171,24.376c3.465-2.753,8.372-2.753,11.837,0l22.889,17.77H271.35
		L294.171,24.376z M34.735,577.927l259.437-201.523c3.467-2.748,8.371-2.748,11.836,0l259.506,201.523H34.735z M577.936,562.458
		L318.221,360.748c-10.637-8.289-25.547-8.289-36.184,0L22.313,562.458V245.772l162.589,126.256
		c4.333,3.359,10.567,2.57,13.926-1.762c3.359-4.332,2.571-10.566-1.761-13.926L31.888,228.083l69.8-54.243v76.665
		c0,5.48,4.443,9.922,9.921,9.922c5.48,0,9.922-4.443,9.922-9.922V71.913c0-5.48,4.442-9.922,9.921-9.922h337.343
		c5.479,0,9.92,4.442,9.92,9.922v178.592c0,5.48,4.442,9.922,9.922,9.922c5.481,0,9.922-4.443,9.922-9.922v-76.665l69.802,54.243
		L402.893,356.57c-2.846,2.158-4.313,5.678-3.844,9.219c0.473,3.541,2.812,6.555,6.123,7.891c3.313,1.336,7.088,0.789,9.885-1.434
		l162.877-126.473v316.686H577.936z"/>
	<path clip-path="url(#SVGID_2_)" fill="none" stroke="#F2A104" stroke-width="5" stroke-miterlimit="10" d="M597.661,230.066
		c-0.063-0.683-0.198-1.359-0.407-2.013c-0.136-0.585-0.326-1.156-0.566-1.707c-0.276-0.538-0.608-1.048-0.989-1.519
		c-0.384-0.559-0.826-1.074-1.321-1.538c-0.16-0.138-0.229-0.328-0.396-0.466l-95.418-74.106V71.914
		c0-16.439-13.327-29.766-29.766-29.766H361.274L318.221,8.721c-10.635-8.295-25.549-8.295-36.184,0l-43.061,33.427H131.452
		c-16.438,0-29.765,13.326-29.765,29.766v76.805L6.299,222.825c-0.169,0.139-0.238,0.328-0.397,0.466
		c-0.494,0.463-0.937,0.979-1.32,1.539c-0.381,0.47-0.713,0.979-0.991,1.518c-0.241,0.55-0.429,1.122-0.565,1.707
		c-0.207,0.645-0.343,1.31-0.407,1.985c0,0.208-0.119,0.387-0.119,0.595v337.371c0.014,6.311,2.056,12.449,5.824,17.512
		c0.059,0.088,0.07,0.197,0.138,0.277c0.07,0.078,0.219,0.168,0.318,0.277c5.574,7.334,14.243,11.658,23.455,11.7h535.779
		c9.25-0.03,17.955-4.374,23.535-11.749c0.08-0.098,0.2-0.129,0.269-0.229c0.069-0.098,0.077-0.188,0.139-0.277
		c3.769-5.063,5.81-11.201,5.824-17.512V230.663C597.78,230.455,597.67,230.274,597.661,230.066z M294.171,24.376
		c3.465-2.753,8.372-2.753,11.837,0l22.889,17.77H271.35L294.171,24.376z M34.735,577.927l259.437-201.523
		c3.467-2.748,8.371-2.748,11.836,0l259.506,201.523H34.735z M577.936,562.458L318.221,360.748c-10.637-8.289-25.547-8.289-36.184,0
		L22.313,562.458V245.772l162.589,126.256c4.333,3.359,10.567,2.57,13.926-1.762c3.359-4.332,2.571-10.566-1.761-13.926
		L31.888,228.083l69.8-54.243v76.665c0,5.48,4.443,9.922,9.921,9.922c5.48,0,9.922-4.443,9.922-9.922V71.913
		c0-5.48,4.442-9.922,9.921-9.922h337.343c5.479,0,9.92,4.442,9.92,9.922v178.592c0,5.48,4.442,9.922,9.922,9.922
		c5.481,0,9.922-4.443,9.922-9.922v-76.665l69.802,54.243L402.893,356.57c-2.846,2.158-4.313,5.678-3.844,9.219
		c0.473,3.541,2.812,6.555,6.123,7.891c3.313,1.336,7.088,0.789,9.885-1.434l162.877-126.473v316.686H577.936z"/>
	<path clip-path="url(#SVGID_2_)" fill="#C08003" d="M401.188,244.584v-33.688c0-55.815-45.248-101.062-101.063-101.062
		c-55.816,0-101.063,45.247-101.063,101.062c0,55.816,45.247,101.063,101.063,101.063c4.652,0,8.421-3.769,8.421-8.421
		c0-4.65-3.769-8.421-8.421-8.421c-46.513,0-84.219-37.706-84.219-84.218c0-46.513,37.706-84.219,84.219-84.219
		c46.512,0,84.219,37.706,84.219,84.219v33.687c0,9.303-7.542,16.844-16.844,16.844c-9.303,0-16.843-7.541-16.843-16.844v-33.687
		c0-4.652-3.773-8.422-8.423-8.422c-4.651,0-8.423,3.77-8.423,8.422c0,18.604-15.083,33.687-33.687,33.687
		c-18.605,0-33.687-15.083-33.687-33.687c0-18.606,15.082-33.688,33.687-33.688c4.652,0,8.421-3.77,8.421-8.421
		c0-4.652-3.769-8.422-8.421-8.422c-22.616-0.05-42.512,14.933-48.709,36.683c-6.199,21.75,2.81,44.97,22.055,56.849
		c19.245,11.879,44.039,9.524,60.702-5.767c1.836,17.81,17.316,31.054,35.196,30.107
		C387.248,277.292,401.244,262.489,401.188,244.584"/>
	<path clip-path="url(#SVGID_2_)" fill="none" stroke="#C08003" stroke-width="5" stroke-miterlimit="10" d="M401.188,244.584
		v-33.688c0-55.815-45.248-101.062-101.063-101.062c-55.816,0-101.063,45.247-101.063,101.062
		c0,55.816,45.247,101.063,101.063,101.063c4.652,0,8.421-3.769,8.421-8.421c0-4.65-3.769-8.421-8.421-8.421
		c-46.513,0-84.219-37.706-84.219-84.218c0-46.513,37.706-84.219,84.219-84.219c46.512,0,84.219,37.706,84.219,84.219v33.687
		c0,9.303-7.542,16.844-16.844,16.844c-9.303,0-16.843-7.541-16.843-16.844v-33.687c0-4.652-3.773-8.422-8.423-8.422
		c-4.651,0-8.423,3.77-8.423,8.422c0,18.604-15.083,33.687-33.687,33.687c-18.605,0-33.687-15.083-33.687-33.687
		c0-18.606,15.082-33.688,33.687-33.688c4.652,0,8.421-3.77,8.421-8.421c0-4.652-3.769-8.422-8.421-8.422
		c-22.616-0.05-42.512,14.933-48.709,36.683c-6.199,21.75,2.81,44.97,22.055,56.849c19.245,11.879,44.039,9.524,60.702-5.767
		c1.836,17.81,17.316,31.054,35.196,30.107C387.248,277.292,401.244,262.489,401.188,244.584z"/>
</g>
</svg>
